<?xml version="1.0" standalone="no"?>
<!DOCTYPE svg PUBLIC "-//W3C//DTD SVG 1.1//EN" "http://www.w3.org/Graphics/SVG/1.1/DTD/svg11.dtd" >
<svg xmlns="http://www.w3.org/2000/svg">
<metadata>Generated by IcoMoon</metadata>
<defs>
<font id="icomoon" horiz-adv-x="1024">
<font-face units-per-em="1024" ascent="960" descent="-64" />
<missing-glyph horiz-adv-x="1024" />
<glyph unicode="&#x20;" horiz-adv-x="512" d="" />
<glyph unicode="&#xe900;" glyph-name="Ask" d="M1024 44.8c0-111.36 10.667-101.12-102.4-101.12 0 0-819.2 0-819.2 0-113.067 0-102.4-10.24-102.4 101.12 0 0 0 806.4 0 806.4 0 111.36-10.667 101.12 102.4 101.12 0 0 819.2 0 819.2 0 113.067 0 102.4 10.24 102.4-101.12 0 0 0-806.4 0-806.4zM980.907 917.76c0 0-937.813 0-937.813 0s0-938.24 0-938.24c0 0 937.813 0 937.813 0s0 938.24 0 938.24zM398.080 660.053c14.080 15.36 27.307 28.587 48.213 37.12 20.48 8.96 42.24 13.227 67.84 13.227 23.040 0 43.947-1.707 63.147-8.107 18.773-6.827 38.4-21.76 52.053-34.133 13.653-11.947 25.173-29.013 32.853-46.507 7.68-17.92 10.24-38.4 10.24-61.867 0-14.933-6.4-28.16-10.24-40.107-3.413-11.947-1.28-22.613-7.253-32.427-5.547-9.387-8.107-18.347-15.787-26.88-7.68-8.107-18.347-16.213-26.453-23.893-7.68-7.253-18.773-14.507-26.453-21.76-7.68-7.68-7.253-15.787-13.653-24.32-5.973-8.107-11.093-17.493-14.507-27.307-3.84-9.813-5.547-24.747-5.547-37.12 0 0 0-28.587 0-28.587s-74.667 0-74.667 0c0 0 0 37.973 0 37.973 1.28 20.053 5.973 37.973 12.373 52.48 6.827 14.080 14.080 26.027 23.893 37.12 8.96 10.667 48.213 49.067 58.027 59.733 21.76 25.173 35.413 40.96 33.28 81.067-1.707 26.453-5.12 47.36-20.48 62.293s-44.373 22.187-70.827 22.187c-17.92 0-26.453-2.133-39.253-8.533s-20.907-15.36-29.44-26.027c-8.533-10.667-14.933-23.040-18.773-37.547s-5.973-26.453-5.973-43.52c0 0-64.427 0-64.427 0-0.427 24.747 1.707 43.947 8.96 65.28 7.68 20.907 18.347 44.373 32.853 60.16zM548.267 151.040c0 0-75.093 0-75.093 0s0 85.333 0 85.333c0 0 75.093 0 75.093 0s0-85.333 0-85.333z" />
<glyph unicode="&#xe901;" glyph-name="Chat" horiz-adv-x="1210" d="M1163.636 75.636c0 0-125.673-0.465-233.193-0.465 0.465-44.684 0-115.433-0.931-121.484-1.862-12.102-31.651-23.738-44.684-13.964-32.116 26.996-47.011 55.855-96.349 135.913-7.913 0-36.305 0-43.753 0-121.949 0-186.182 0-186.182 0-38.633 0-45.615 14.895-45.615 53.527 0 0 0 40.495 0 40.495 11.171-0.465 47.942-1.396 47.942-1.396s-1.862-45.615-1.862-45.615c0 0 276.015-0.465 276.015-0.465s49.338-93.091 49.338-93.091c0 0 0 92.625 0 92.625s279.273 0 279.273 0c0 0 0 418.444 0 418.444s-280.204 0-280.204 0c0 0 0 45.615 0 45.615s256.931 0 256.931 0c38.633 0 69.818-15.36 69.818-53.993 0 0 0-402.618 0-402.618 0-38.633-7.913-53.527-46.545-53.527zM512.931 169.658c-19.084 0-36.771 0-52.596 0-7.447 0-14.895 0-22.342 0-32.582-28.393-92.16-80.524-124.276-107.52-13.033-10.24-41.425 1.862-43.287 13.498-0.931 6.516-0.931 49.338-0.465 94.022-107.985 0-217.833 0-217.833 0-38.167 0-52.131 13.964-52.131 52.596 0 0 0 686.545 0 686.545 0 38.633 6.516 51.2 45.149 51.2 0 0 790.342 0 790.342 0 38.633 0 47.942-11.171 47.942-49.804 0 0 0-658.618 0-658.618 0-38.633-35.375-81.92-74.007-81.92 0 0-171.753 0-296.495 0 0 0 0 0 0 0-4.189 0-5.12 0 0 0zM835.956 216.204c0 0 1.396 695.855 1.396 695.855s-790.807-0.465-790.807-0.465c0 0 0-695.389 0-695.389s276.945 0 276.945 0c0 0 0.465-91.229 0.465-91.229s94.022 91.229 94.022 91.229c0 0 417.978 0 417.978 0zM216.902 421.004c0 0 0 1.862 0 1.862 0 13.033 10.705 25.6 23.738 25.6 0 0 421.702 0 421.702 0 13.498 0 23.738-13.033 23.738-26.531 0 0 0-0.931 0-0.931 0-13.498-10.24-20.945-23.738-20.945 0 0-421.702 0-421.702 0-13.033 0-23.738 7.447-23.738 20.945zM558.080 679.331c0 0-317.44 0-317.44 0-13.033 0-23.738 7.447-23.738 20.48 0 0 0 1.862 0 1.862 0 13.498 10.705 25.6 23.738 25.6 0 0 317.44 0 317.44 0 13.033 0 23.738-13.033 23.738-26.065 0 0 0-1.396 0-1.396 0-13.033-10.705-20.48-23.738-20.48zM240.64 587.171c0 0 212.713 0 212.713 0 13.033 0 23.738-11.636 23.738-25.135 0 0 0-0.931 0-0.931 0-13.033-10.705-20.48-23.738-20.48 0 0-212.713 0-212.713 0-13.033 0-23.738 7.447-23.738 20.48 0 0 0 1.862 0 1.862 0 13.498 10.705 24.204 23.738 24.204z" />
<glyph unicode="&#xe902;" glyph-name="Companies" horiz-adv-x="896" d="M832-64c0 0-341.333 0-341.333 0s-80.213 0-80.213 0c0 0 0 0.853 0 0.853-1.707 0-3.413-0.853-5.12-0.853 0 0-341.333 0-341.333 0-35.413 0-64 28.587-64 64 0 0 0 896 0 896 0 35.413 28.587 64 64 64 0 0 341.333 0 341.333 0 35.413 0 64-28.587 64-64 0 0 0-192 0-192s21.333 0 21.333 0c0 0 21.333 0 21.333 0s320 0 320 0c35.413 0 64-28.587 64-64 0 0 0-640 0-640 0-35.413-28.587-64-64-64zM426.667 640c0 0 0 256 0 256 0 11.947-9.387 21.333-21.333 21.333 0 0-341.333 0-341.333 0-11.947 0-21.333-9.387-21.333-21.333 0 0 0-896 0-896 0-11.947 9.387-21.333 21.333-21.333 0 0 341.333 0 341.333 0 11.947 0 21.333 9.387 21.333 21.333 0 0 0 640 0 640zM853.333 640c0 11.947-9.387 21.333-21.333 21.333 0 0-341.333 0-341.333 0-11.947 0-21.333-9.387-21.333-21.333 0 0 0-640 0-640 0-11.947 9.387-21.333 21.333-21.333 0 0 341.333 0 341.333 0 11.947 0 21.333 9.387 21.333 21.333 0 0 0 640 0 640zM597.333 234.667c0 0 128 0 128 0s0-128 0-128c0 0-128 0-128 0s0 128 0 128zM597.333 512c0 0 128 0 128 0s0-128 0-128c0 0-128 0-128 0s0 128 0 128zM170.667 234.667c0 0 128 0 128 0s0-128 0-128c0 0-128 0-128 0s0 128 0 128zM170.667 512c0 0 128 0 128 0s0-128 0-128c0 0-128 0-128 0s0 128 0 128zM170.667 789.333c0 0 128 0 128 0s0-128 0-128c0 0-128 0-128 0s0 128 0 128z" />
<glyph unicode="&#xe903;" glyph-name="Feed" horiz-adv-x="1069" d="M1049.377 399.026c-6.233-5.343-6.678-2.226-15.137-2.226-9.795 0-19.144 7.569-24.042 12.466 0 0-475.937 503.986-475.937 503.986s-457.238-488.403-457.238-488.403c-12.021-12.021-36.953-37.843-48.529-24.487-12.911 11.13-32.056 23.151-20.035 35.617 0 0 505.322 514.226 505.322 514.226 6.233 6.233 13.357 9.795 21.816 9.795 7.569 0 14.692-3.117 20.925-9.795 0 0 199.457-203.464 199.457-203.464s0 132.23 0 132.23c0 17.809 7.123 26.713 23.597 26.713 17.363 0 22.261-8.014 22.261-25.823 0 0 0-186.546 0-186.546s261.343-260.897 261.343-260.897c12.021-12.466-2.671-21.816-13.802-33.391zM203.91 394.129c17.363 0 17.809-10.685 17.809-27.158 0 0 0-385.558 0-385.558s177.642 0 177.642 0c0 0 0 193.67 0 193.67 0 16.473 14.247 31.165 31.61 31.165 0 0 207.026 0 207.026 0 16.473 0 29.83-14.692 29.83-31.165 0 0 0-193.67 0-193.67s177.642 0 177.642 0c0 0 0 381.551 0 381.551 0 17.809 8.459 31.61 25.823 31.61 16.028 0 19.144-13.802 19.144-31.61 0 0 0-396.689 0-396.689 0-16.473-13.357-30.275-29.83-30.275 0 0-206.136 0-206.136 0-17.363 0-31.165 13.802-31.165 30.275 0 0 0 186.991 0 186.991s-177.642 0-177.642 0c0 0 0-186.991 0-186.991 0-16.473-13.357-30.275-29.83-30.275 0 0-208.807 0-208.807 0-16.473 0-29.83 13.802-29.83 30.275 0 0 0 400.696 0 400.696 0 16.473 10.685 27.158 26.713 27.158z" />
<glyph unicode="&#xe904;" glyph-name="Notifications" d="M1020.587 77.653c-5.973-10.24-14.933-15.787-27.307-15.787 0 0-961.707 0-961.707 0-12.373 0-21.333 5.547-27.307 15.787-2.987 5.12-4.267 16.213-4.267 21.333 0 5.973 2.56 11.52 6.4 17.067 39.68 58.453 69.547 120.747 90.027 186.453s58.027 149.333 74.24 273.493c9.387 72.107 20.053 144.64 52.907 183.467 16.64 20.053 35.84 37.547 57.173 52.907 42.667 31.147 77.653 45.227 117.76 57.173 5.547 25.6 18.773 47.36 40.107 64.427s46.080 26.027 73.387 26.027c27.733 0 52.053-8.96 73.813-26.027 21.333-17.493 34.987-38.827 40.533-64.427 40.107-11.947 74.667-26.453 117.333-57.173 21.76-15.36 40.533-33.28 57.173-52.907 32.853-39.253 63.147-100.267 72.533-172.373 16.213-124.16 34.133-219.307 54.613-284.587 20.48-65.707 50.347-135.253 90.453-193.28 3.84-5.12 5.547-10.667 5.547-16.64 0-4.693-0.853-9.813-3.413-14.933zM860.587 316.16c-17.92 66.56-34.133 154.453-49.493 263.253-8.107 61.013-32.427 112.213-61.44 145.493-14.080 16.213-30.72 30.72-49.493 43.52-37.547 25.6-71.253 37.547-109.653 46.933-14.080 3.413-23.893 15.36-23.893 29.013 0 0 0 1.28 0 1.28 0 29.44-23.893 52.907-54.613 52.907-29.867 0-55.040-23.467-55.040-52.907 0 0 0-1.28 0-1.28 0-13.653-8.96-26.027-22.613-29.013-38.827-8.533-71.68-21.76-110.080-46.933-54.187-35.413-97.707-94.72-111.36-189.013-15.36-108.8-31.573-197.12-49.067-263.68-17.493-66.987-44.8-152.32-78.507-209.067 0 0 853.333 0 853.333 0-33.707 57.173-60.16 142.933-78.080 209.493zM576.427-37.12c-17.493-17.92-38.827-27.307-64-27.307s-46.507 8.96-64.853 27.307c-17.92 17.493-26.453 38.4-26.453 63.147 0 0 181.76 0 181.76 0 0-24.747-8.96-45.653-26.453-63.147z" />
<glyph unicode="&#xe905;" glyph-name="Search" d="M1011.2-52.48c-14.080-14.72-37.76-14.72-51.84 0 0 0-251.52 249.6-251.52 249.6-75.52-62.72-170.88-102.4-275.84-102.4-238.72 0-432 193.92-432 432.64s193.28 432.64 432 432.64c238.080 0 431.36-193.92 431.36-432.64 0-106.24-39.68-202.88-103.68-278.4 0 0 251.52-248.96 251.52-248.96 14.72-14.72 14.72-37.76 0-52.48zM432.64 882.56c-195.84 0-354.56-159.36-354.56-355.84 0-197.12 158.72-356.48 354.56-356.48 196.48 0 355.2 159.36 355.2 356.48 0 196.48-158.72 355.84-355.2 355.84z" />
<glyph unicode="&#xe906;" glyph-name="Services" horiz-adv-x="811" d="M746.667-64c0 0-682.667 0-682.667 0-35.413 0-64 28.587-64 64 0 0 0 896 0 896 0 35.413 28.587 64 64 64 0 0 682.667 0 682.667 0 35.413 0 64-28.587 64-64 0 0 0-896 0-896 0-35.413-28.587-64-64-64zM768 896c0 11.947-9.387 21.333-21.333 21.333 0 0-682.667 0-682.667 0-11.947 0-21.333-9.387-21.333-21.333 0 0 0-896 0-896 0-11.947 9.387-21.333 21.333-21.333 0 0 682.667 0 682.667 0 11.947 0 21.333 9.387 21.333 21.333 0 0 0 896 0 896zM128 149.333c0 0 554.667 0 554.667 0s0-85.333 0-85.333c0 0-554.667 0-554.667 0s0 85.333 0 85.333zM128 320c0 0 554.667 0 554.667 0s0-85.333 0-85.333c0 0-554.667 0-554.667 0s0 85.333 0 85.333zM128 490.667c0 0 554.667 0 554.667 0s0-85.333 0-85.333c0 0-554.667 0-554.667 0s0 85.333 0 85.333zM128 661.333c0 0 554.667 0 554.667 0s0-85.333 0-85.333c0 0-554.667 0-554.667 0s0 85.333 0 85.333zM298.667 832c0 0 384 0 384 0s0-85.333 0-85.333c0 0-384 0-384 0s0 85.333 0 85.333z" />
</font></defs></svg>