<?xml version="1.0" encoding="UTF-8"?>
<!DOCTYPE svg PUBLIC "-//W3C//DTD SVG 1.1//EN" "http://www.w3.org/Graphics/SVG/1.1/DTD/svg11.dtd">
<!-- Creator: CorelDRAW X6 -->
<svg xmlns="http://www.w3.org/2000/svg" xml:space="preserve" width="130px" height="40px" version="1.1" style="shape-rendering:geometricPrecision; text-rendering:geometricPrecision; image-rendering:optimizeQuality; fill-rule:evenodd; clip-rule:evenodd"
viewBox="0 0 1300000 399995"
 xmlns:xlink="http://www.w3.org/1999/xlink">
 <defs>
  <style type="text/css">
   <![CDATA[
    .fil0 {fill:white}
   ]]>
  </style>
 </defs>
 <g id="Слой_x0020_1">
  <metadata id="CorelCorpID_0Corel-Layer"/>
  <path id="path-1" class="fil0" d="M1215952 347364c-1736,3059 -3118,6142 -3803,8847 -1039,2716 -1394,5114 -1394,7157 0,3059 1040,5433 3118,7489 2079,1700 4501,2716 7961,2716 8303,0 18000,-4417 28725,-12590 10736,-8516 21815,-20091 33236,-35422 0,0 5540,1016 5540,1016 0,0 -13158,58725 -13158,58725 0,0 -134646,0 -134646,0 0,0 71303,-133289 71303,-133289 3461,-6130 5894,-10901 7264,-14988 1736,-4087 2433,-8598 2433,-11315 0,-3071 -697,-5445 -2433,-7157 -1724,-2032 -4146,-2717 -7264,-2717 -7618,0 -16606,5528 -26658,14374 -9685,8516 -19724,20776 -29752,36107 0,0 -5551,-674 -5551,-674 0,0 13500,-61677 13500,-61677 0,0 124265,0 124265,0 0,0 -72686,143398 -72686,143398zm-165721 3059c7972,13961 20090,19666 36000,19666 11079,0 21118,-4004 29776,-14894 8657,-10902 14882,-25878 18697,-44953 0,0 8645,6461 8645,6461 -3815,23161 -12815,41209 -26303,54484 -13854,13288 -30461,18307 -50540,18307 -22842,0 -41893,-7748 -56775,-25795 -15225,-18390 -22843,-41197 -22843,-69118 0,-26564 7618,-48355 23197,-66060 15579,-17362 34961,-24638 58500,-24638 22500,0 40843,5563 54343,19181 13500,13288 20421,33119 20421,55938 0,0 -105236,0 -105236,0 0,0 0,9189 0,9189 0,28264 4169,48272 12118,62232zm40157 -87307c0,-16016 -2090,-28819 -6236,-37323 -3803,-8516 -9685,-10264 -17303,-10264 -7961,0 -14185,3189 -19394,12390 -4842,8846 -7606,19866 -8291,35197 0,0 51224,0 51224,0zm-205524 87307c7972,13961 20078,20150 36000,20150 11090,0 21106,-4488 29764,-15378 8657,-10902 14882,-25878 18685,-44953 0,0 8657,6461 8657,6461 -3791,23161 -12791,41209 -26303,54484 -13831,13288 -30461,18556 -50528,18556 -22854,0 -41882,-7997 -56764,-26044 -15236,-18390 -22842,-41197 -22842,-69118 0,-26564 7606,-48355 23185,-66060 15567,-17362 34949,-24437 58500,-24437 22488,0 40831,5362 54331,18980 13512,13288 20421,32930 20421,55749 0,0 -105213,0 -105213,0 0,0 0,9201 0,9201 0,28264 4146,48449 12107,62409zm40157 -87272c0,-16016 -2078,-28854 -6236,-37358 -3803,-8516 -9673,-10264 -17303,-10264 -7961,0 -14197,2976 -19394,12189 -4843,8846 -7606,20102 -8303,35433 0,0 51236,0 51236,0zm-104563 -55299c0,0 -3803,15968 -3803,15968 0,0 -22524,0 -22524,0 0,0 0,77918 0,77918 0,29953 2787,50055 6260,60260 3094,9886 9342,16831 17988,19548 0,0 0,3850 0,3850 -13158,-319 -33083,142 -59528,-201 -4854,-2716 -8315,-7535 -10039,-13311 -2091,-5457 -3130,-15673 -3130,-30319 0,-4075 0,-9874 354,-16689 354,-7146 -71,-11906 -71,-14634 0,0 0,-86422 0,-86422 0,0 -19311,0 -19311,0 0,0 1736,-9271 1736,-9271 14528,-7489 26989,-16347 37371,-25879 10051,-9874 18697,-20763 25618,-33708 0,0 4771,0 4771,0 -342,4429 -1322,9874 -1653,15992 0,6472 -366,13961 -366,23161 0,0 0,13737 0,13737 0,0 26327,0 26327,0zm-88300 178371c-6579,-343 -13146,-437 -19725,-437 -6921,-343 -13500,-343 -20078,-343 -6579,0 -13146,0 -19737,343 -6579,0 -13157,342 -19724,673 0,0 0,-3732 0,-3732 5197,-2729 8645,-8457 10382,-15957 2067,-7146 2634,-21461 2634,-42225 0,0 0,-19417 0,-19417 0,0 0,-16004 0,-16004 0,-23835 -1252,-40855 -4713,-51071 -3461,-10217 -8988,-15331 -16949,-15331 -8315,0 -14882,5799 -19736,17386 -4855,11905 -6780,28240 -6780,49016 0,0 0,16004 0,16004 0,31677 555,52099 2622,60284 2079,8504 5882,14917 11079,17315 0,0 0,3732 0,3732 -6224,-331 -12461,-673 -18697,-673 -6213,-343 -12803,-343 -19725,-343 -6578,0 -13500,0 -20763,343 -6934,0 -14197,342 -21816,673 0,0 0,-3732 0,-3732 6591,-2729 12898,-9154 15331,-16973 2764,-7842 3803,-24862 3803,-51083 0,0 0,-9543 0,-9543 0,0 0,-47339 0,-47339 0,-14634 -1039,-23823 -3472,-27921 -2079,-4075 -7689,-6461 -13583,-6804 0,0 0,-3744 0,-3744 11422,-1701 22158,-3413 32882,-5456 10737,-2032 22241,-4418 32292,-6804 0,0 0,24520 0,24520 5185,-10547 9945,-16701 17197,-21803 7287,-4760 15945,-7146 25972,-7146 18686,0 32528,6815 41197,20091 8646,13630 11882,34748 11882,63331 0,0 0,19075 0,19075 0,30650 1394,50398 3815,59599 2422,9543 8174,15708 14410,17752 0,0 0,3744 0,3744zm-277514 -33863c7949,13961 20079,21119 36001,21119 11067,0 21106,-5457 29764,-16359 8657,-10890 14882,-25878 18697,-44941 0,0 8645,6473 8645,6473 -3803,23149 -12803,41197 -26303,54484 -13843,13288 -30473,19748 -50540,19748 -22842,0 -41882,-9201 -56764,-27236 -15236,-18402 -22842,-41221 -22842,-69130 0,-26575 7606,-48367 23185,-66072 15567,-17374 34972,-25878 58500,-25878 22500,0 40843,6803 54343,20433 13512,13276 20421,31146 20421,53953 0,0 -105957,0 -105957,0 0,0 0,9721 0,9721 0,28276 4890,49725 12850,63685zm40146 -89209c0,-16016 -2067,-26917 -6236,-35421 -3791,-8516 -9685,-12957 -17291,-12957 -7973,0 -14185,4441 -19382,13642 -4855,8846 -8599,19405 -9284,34736 0,0 52193,0 52193,0zm-291627 125469c-22323,0 -43760,-3755 -63733,-10630 156544,1063 268277,-112477 243533,-247773 8433,21296 13039,44469 13039,68682 0,104764 -86339,189721 -192839,189721zm-53670 -79417c0,-58347 0,-116694 0,-175041 16181,0 32362,0 48544,0 60567,177 103796,42437 100547,107930 42910,-81638 -4500,-165025 -90697,-164658 -42673,0 -85347,0 -128032,0 0,0 0,267308 0,267308 -42473,-34795 -69520,-87213 -69520,-145843 0,-104741 86362,-189698 192828,-189698 59398,0 112500,26421 147898,67973 10028,142382 -50126,237946 -201568,232029zm1053243 -155647l0 -42272 -18071 0 0 -5610 43417 0 0 5610 -18071 0 0 42272 -7275 0zm35386 0l0 -47882 10878 0 12956 33886c1205,3165 2067,5516 2611,7098 638,-1748 1618,-4311 2941,-7689l13193 -33295 9720 0 0 47882 -6968 0 0 -40063 -16004 40063 -6532 0 -15839 -40795 0 40795 -6956 0z"/>
 </g>
</svg>
